<?xml version="1.0" encoding="UTF-8"?>
<svg width="700pt" height="700pt" version="1.1" viewBox="0 0 700 700" xmlns="http://www.w3.org/2000/svg">
 <g fill-rule="evenodd">
  <path d="m477.43 438.95v48.117c0 26.344 21.438 47.789 47.789 47.789s47.789-21.438 47.789-47.789v-48.117c19.242-14.578 31.859-37.398 31.859-63.383 0-25.98-12.621-48.805-31.859-63.344v-239.29c0-26.344-21.438-47.789-47.789-47.789s-47.789 21.438-47.789 47.789v239.29c-19.242 14.531-31.859 37.371-31.859 63.344 0 25.98 12.621 48.805 31.859 63.383zm2.1484-76.758c0.25-0.84766 0.47656-1.6719 0.78125-2.5195 1.5156-4.207 3.4609-8.1836 6.0195-11.719 0.066406-0.09375 0.16016-0.15234 0.22656-0.25 2.7695-3.7891 6.0703-7.1484 9.8164-9.9883 0.066406-0.066406 0.11328-0.097656 0.15234-0.125 3.8438-2.9023 8.1211-5.2266 12.73-6.8516 4.9805-1.8008 10.285-2.9453 15.906-2.9453 5.6211 0 10.926 1.1523 15.934 2.9648 4.6016 1.6289 8.8828 3.9492 12.727 6.8516 0.046875 0.027344 0.09375 0.066407 0.15234 0.125 3.7422 2.832 7.0391 6.1914 9.8164 9.9883 0.066406 0.09375 0.16016 0.15234 0.22656 0.25 2.5586 3.5508 4.5039 7.5352 6.0195 11.719 0.29687 0.84766 0.52344 1.6719 0.78125 2.5195 1.2578 4.2461 2.1367 8.6992 2.1367 13.359 0 4.7031-0.87891 9.1484-2.1484 13.414-0.25 0.84766-0.47656 1.6719-0.78125 2.4883-1.5 4.207-3.4453 8.1875-6.0195 11.762-0.066407 0.09375-0.16016 0.15234-0.22656 0.25-2.7695 3.7578-6.0664 7.1484-9.8086 9.9883-0.066406 0.027344-0.11719 0.09375-0.16016 0.125-3.8242 2.8516-8.1094 5.1914-12.711 6.832-5 1.7773-10.305 2.9297-15.926 2.9297s-10.926-1.1523-15.926-2.9297c-4.6094-1.6523-8.8906-3.9805-12.727-6.8516-0.054687-0.027343-0.097656-0.09375-0.16016-0.125-3.7422-2.8359-7.0391-6.2305-9.8164-9.9883-0.066406-0.09375-0.15234-0.16016-0.21875-0.25-2.5664-3.5508-4.5117-7.5352-6.0039-11.738-0.29688-0.8125-0.54297-1.6406-0.78125-2.4883-1.2773-4.2656-2.1484-8.7109-2.1484-13.414 0-4.6641 0.87891-9.1094 2.1484-13.379h-0.007813z"/>
  <path d="m302.21 247.81v239.26c0 26.344 21.438 47.789 47.789 47.789s47.789-21.438 47.789-47.789v-239.26c19.242-14.559 31.859-37.398 31.859-63.379 0-25.988-12.621-48.805-31.859-63.344v-48.152c0-26.344-21.438-47.789-47.789-47.789s-47.789 21.438-47.789 47.789v48.152c-19.227 14.523-31.859 37.363-31.859 63.344 0 25.973 12.633 48.805 31.859 63.379zm2.1562-76.766c0.25-0.83984 0.48828-1.6719 0.78125-2.5117 1.5273-4.207 3.4609-8.1875 6.0391-11.719 0.066406-0.097656 0.16016-0.16016 0.22656-0.25 2.7656-3.7969 6.0664-7.1562 9.7969-9.9883 0.066406-0.066407 0.125-0.097657 0.15234-0.13281 3.8555-2.8984 8.1211-5.2266 12.727-6.8477 4.9883-1.8047 10.312-2.9414 15.914-2.9414 5.6016 0 10.926 1.1445 15.926 2.957 4.6094 1.6289 8.8906 3.9492 12.73 6.8516 0.046875 0.03125 0.09375 0.066406 0.15234 0.125 3.7422 2.8359 7.0391 6.1992 9.8164 9.9883 0.066406 0.097656 0.15234 0.16016 0.21875 0.25781 2.5664 3.5508 4.5117 7.5273 6.0273 11.719 0.29688 0.83984 0.52344 1.6719 0.78125 2.5117 1.2578 4.2539 2.1367 8.6992 2.1367 13.367 0 4.7031-0.87891 9.1406-2.1484 13.414-0.25 0.83984-0.47656 1.6719-0.78125 2.4883-1.5156 4.207-3.4609 8.1836-6.0195 11.754-0.066406 0.097656-0.16016 0.16016-0.22656 0.25-2.7695 3.7578-6.0703 7.1562-9.8164 9.9883-0.066406 0.03125-0.11328 0.097656-0.15234 0.125-3.8438 2.8711-8.1211 5.1992-12.727 6.8516-4.9883 1.7734-10.293 2.918-15.914 2.918-5.6016 0-10.926-1.1523-15.926-2.9297-4.6094-1.6602-8.875-3.9805-12.73-6.8516-0.027343-0.03125-0.09375-0.097656-0.15234-0.125-3.7305-2.8359-7.0234-6.2305-9.7969-9.9883-0.066406-0.097657-0.16016-0.16016-0.22656-0.25781-2.5781-3.5781-4.5117-7.5664-6.0391-11.754-0.28516-0.8125-0.52344-1.6523-0.78125-2.4883-1.2578-4.2539-2.1367-8.6992-2.1367-13.395 0-4.668 0.87891-9.1094 2.1484-13.387z"/>
  <path d="m127 438.95v48.117c0 26.344 21.438 47.789 47.789 47.789 26.352 0 47.789-21.438 47.789-47.789v-48.117c19.262-14.578 31.859-37.398 31.859-63.383 0-25.98-12.602-48.805-31.859-63.344v-239.29c0-26.344-21.438-47.789-47.789-47.789-26.352 0-47.789 21.438-47.789 47.789v239.29c-19.227 14.531-31.859 37.371-31.859 63.344 0 25.98 12.633 48.805 31.859 63.383zm2.1562-76.758c0.25-0.84766 0.48828-1.6719 0.78125-2.5195 1.5273-4.207 3.4531-8.1836 6.0391-11.719 0.066407-0.09375 0.15234-0.15234 0.21875-0.25 2.7695-3.7891 6.0703-7.1484 9.7969-9.9883 0.066406-0.066406 0.125-0.097656 0.16016-0.125 3.8555-2.9023 8.1211-5.2266 12.727-6.8516 4.9883-1.8008 10.305-2.9453 15.914-2.9453 5.6406 0 10.926 1.1523 15.926 2.9648 4.6016 1.6289 8.9023 3.9492 12.727 6.8516 0.066407 0.027344 0.097657 0.066407 0.16016 0.125 3.7578 2.832 7.0586 6.1914 9.8203 9.9883 0.066407 0.09375 0.16016 0.15234 0.22656 0.25 2.5469 3.5508 4.5117 7.5352 6.0039 11.719 0.31641 0.84766 0.52344 1.6719 0.78125 2.5195 1.2578 4.2461 2.1367 8.6992 2.1367 13.359 0 4.7031-0.87891 9.1484-2.1484 13.414-0.25 0.84766-0.46484 1.6719-0.78125 2.4883-1.5 4.207-3.4609 8.1875-6.0039 11.762-0.066406 0.09375-0.15234 0.15234-0.21875 0.25-2.7695 3.7578-6.0703 7.1484-9.8281 9.9883-0.066406 0.027344-0.09375 0.09375-0.15234 0.125-3.8242 2.8633-8.1211 5.1914-12.73 6.8516-4.9805 1.7656-10.273 2.9102-15.906 2.9102-5.6094 0-10.926-1.1523-15.934-2.9297-4.6055-1.6523-8.8711-3.9805-12.727-6.8516-0.027343-0.027343-0.09375-0.09375-0.15234-0.125-3.7305-2.8359-7.0312-6.2305-9.7969-9.9883-0.066406-0.09375-0.16016-0.16016-0.22656-0.25-2.5781-3.5859-4.5117-7.5664-6.0391-11.762-0.29297-0.8125-0.52344-1.6523-0.78125-2.4883-1.2578-4.2461-2.1367-8.6992-2.1367-13.395 0-4.6641 0.87891-9.1094 2.1484-13.379z"/>
  <path d="m334.07 72.93c0-8.8086 7.1172-15.926 15.926-15.926s15.926 7.1172 15.926 15.926v33.488c-5.1445-1.0703-10.465-1.6289-15.926-1.6289-5.4492 0-10.77 0.55469-15.926 1.6289z"/>
 </g>
</svg>
