"spp_id","scientificName","acceptedScientificName","family","genus"
"sp_1","Tapirus bairdii (Gill, 1865)","Tapirella bairdii (Gill, 1865)","Tapiridae","Tapirella"
"sp_2","Tapirus terrestris (Linnaeus, 1758)","Tapirus terrestris (Linnaeus, 1758)","Tapiridae","Tapirus"
"sp_3","Tapirus pinchaque (Roulin, 1829)","Tapirus pinchaque (Roulin, 1829)","Tapiridae","Tapirus"
"sp_4","Tapirus indicus Desmarest, 1819","Acrocodia indica (Desmarest, 1819)","Tapiridae","Acrocodia"
